Calculating residual spatial autocorrelation
…
# waywiser itself, of course:
library(waywiser)
# For the %>% pipe and mutate:
library(dplyr)

We’ll be working with the guerry data included in
waywiser package. We’ll fit a simple linear model relating crimes
against persons with literacy, and then generate predictions from that
model. We can use ww_local_moran_i() to calculate the local
spatial autocorrelation of our residuals at each data point:

guerry %>%
  mutate(pred = predict(lm(Crm_prs ~ Litercy, .))) %>%
  ww_local_moran_i(Crm_prs, pred)
#> # A tibble: 85 × 3
#>    .metric       .estimator .estimate
#>    <chr>         <chr>          <dbl>
#>  1 local_moran_i standard      0.530 
#>  2 local_moran_i standard      0.858 
#>  3 local_moran_i standard      0.759 
#>  4 local_moran_i standard      0.732 
#>  5 local_moran_i standard      0.207 
#>  6 local_moran_i standard      0.860 
#>  7 local_moran_i standard      0.692 
#>  8 local_moran_i standard      1.69  
#>  9 local_moran_i standard     -0.0109
#> 10 local_moran_i standard      0.710 
#> # ℹ 75 more rows
…
guerry %>%
  mutate(pred = predict(lm(Crm_prs ~ Litercy, .))) %>%
  ww_local_moran_i(Crm_prs, pred, weights)
#> # A tibble: 85 × 3
#>    .metric       .estimator .estimate
#>    <chr>         <chr>          <dbl>
#>  1 local_moran_i standard    0.530   
#>  2 local_moran_i standard    0.794   
#>  3 local_moran_i standard    0.646   
#>  4 local_moran_i standard    0.687   
#>  5 local_moran_i standard    0.207   
#>  6 local_moran_i standard    1.49    
#>  7 local_moran_i standard    0.692   
#>  8 local_moran_i standard    1.69    
#>  9 local_moran_i standard   -0.000610
#> 10 local_moran_i standard    0.859   
#> # ℹ 75 more rows
Or as a function, which lets you use custom weights with other
tidymodels functions like fit_resamples():

weights_function <- function(data) {
  data %>%
    sf::st_geometry() %>%
    sf::st_centroid() %>%
    spdep::dnearneigh(0, 97000) %>%
    spdep::nb2listw()
}

guerry %>%
  mutate(pred = predict(lm(Crm_prs ~ Litercy, .))) %>%
  ww_local_moran_i(Crm_prs, pred, weights_function)
#> # A tibble: 85 × 3
#>    .metric       .estimator .estimate
#>    <chr>         <chr>          <dbl>
#>  1 local_moran_i standard    0.530   
#>  2 local_moran_i standard    0.794   
#>  3 local_moran_i standard    0.646   
#>  4 local_moran_i standard    0.687   
#>  5 local_moran_i standard    0.207   
#>  6 local_moran_i standard    1.49    
#>  7 local_moran_i standard    0.692   
#>  8 local_moran_i standard    1.69    
#>  9 local_moran_i standard   -0.000610
#> 10 local_moran_i standard    0.859   
#> # ℹ 75 more rows
…
